%YAML 1.1
%TAG !u! tag:unity3d.com,2011:
--- !u!78 &1
TagManager:
  serializedVersion: 2
  tags: []
  layers:
  - Default
  - TransparentFX
  - Ignore Raycast
  - 
  - Water
  - UI
  - 
  - 
  - 
  - 
  - 
  - 
  - 
  - 
  - 
  - 
  - 
  - 
  - 
  - 
  - 
  - 
  - 
  - 
  - 
  - 
  - 
  - 
  - 
  - 
  - 
  - 
  m_SortingLayers:
  - name: Default
    uniqueID: 0
    locked: 0
  - name: FLOOR
    uniqueID: 2574859791
    locked: 0
  - name: ITEM
    uniqueID: 3953931103
    locked: 0
  - name: HERO
    uniqueID: 245090127
    locked: 0
  - name: DARKNESS_MASK
    uniqueID: 513669557
    locked: 0
  - name: UI
    uniqueID: 2938047985
    locked: 0
